<?xml version="1.0" encoding="utf-8"?>
<!-- Generator: Adobe Illustrator 15.0.0, SVG Export Plug-In . SVG Version: 6.00 Build 0)  -->
<!DOCTYPE svg PUBLIC "-//W3C//DTD SVG 1.1//EN" "http://www.w3.org/Graphics/SVG/1.1/DTD/svg11.dtd">
<svg version="1.1" id="Layer_1" xmlns="http://www.w3.org/2000/svg" xmlns:xlink="http://www.w3.org/1999/xlink" x="0px" y="0px"
	 width="250px" height="250px" viewBox="0 0 250 250" enable-background="new 0 0 250 250" xml:space="preserve">
<g>
	<ellipse fill="#F9B6AC" cx="68.668" cy="177.539" rx="35.448" ry="36.926"/>
	<g>
		<path d="M101.819,178.314c-0.352,19.48-14.979,36.584-35.43,34.572c-18.11-1.781-30.558-18.738-30.872-36.121
			c-0.353-19.533,15.524-36.531,35.431-34.574C89.058,143.973,101.505,160.932,101.819,178.314c0.027,1.492,4.619-0.201,4.595-1.549
			c-0.387-21.426-17.379-38.68-39.128-37.398c-20.303,1.195-36.004,19.068-36.363,38.947c-0.388,21.463,17.954,38.645,39.128,37.396
			c20.302-1.195,36.003-19.068,36.363-38.945C106.44,175.307,101.844,176.941,101.819,178.314z"/>
	</g>
</g>
<g>
	<ellipse fill="#FCD1C5" cx="160.801" cy="173.354" rx="32.967" ry="34.77"/>
	<g>
		<path d="M191.271,173.492c-0.328,17.111-12.896,34.037-31.217,33.646c-17.638-0.377-29.412-17.652-29.725-33.922
			c-0.328-17.129,13.406-34.025,31.217-33.646C179.185,139.947,190.959,157.221,191.271,173.492c0.025,1.332,5.02,1.127,4.992-0.275
			c-0.372-19.406-15.587-36.009-35.516-35.584c-19.877,0.425-35.03,16.045-35.41,35.859c-0.373,19.424,16.134,35.998,35.516,35.584
			c19.877-0.424,35.03-16.047,35.41-35.859C196.288,171.924,191.299,172.053,191.271,173.492z"/>
	</g>
</g>
<g>
	<polygon fill="#FAC3C6" points="189.664,72.322 91.343,69.775 85.331,36.989 189.664,35.536 	"/>
	<g>
		<path d="M188.816,70.362c-32.773-0.849-65.547-1.698-98.321-2.547c1.042,0.799,2.085,1.599,3.128,2.398
			c-2.004-10.929-4.008-21.857-6.013-32.786c-0.478,0.507-0.955,1.015-1.433,1.522c34.778-0.484,69.555-0.969,104.333-1.453
			c-1.043-0.799-2.085-1.599-3.128-2.398c0,12.262,0,24.524,0,36.787c0,2.118,4.561,3.664,4.561,0.876c0-12.262,0-24.524,0-36.787
			c0-1.389-1.95-2.415-3.128-2.398c-34.777,0.484-69.556,0.969-104.333,1.453c-0.83,0.011-1.597,0.626-1.433,1.522
			c2.004,10.929,4.008,21.857,6.013,32.786c0.262,1.428,1.753,2.362,3.128,2.398c32.774,0.849,65.547,1.698,98.321,2.547
			C193.545,74.361,190.951,70.417,188.816,70.362z"/>
	</g>
</g>
<g>
	<g>
		<path d="M88.9,70.303c4.151,34.288,8.302,68.576,12.453,102.865c0.343,2.838,5.231,1.787,4.887-1.057
			c-4.151-34.288-8.302-68.576-12.453-102.864C93.443,66.408,88.555,67.458,88.9,70.303L88.9,70.303z"/>
	</g>
</g>
<g>
	<g>
		<path d="M187.185,72.262c1.558,33.677,3.114,67.354,4.672,101.031c0.137,2.959,5.088,2.91,4.959,0.121
			c-1.558-33.677-3.114-67.354-4.672-101.031C192.007,69.424,187.056,69.473,187.185,72.262L187.185,72.262z"/>
	</g>
</g>
</svg>
