<?xml version="1.0" encoding="utf-8"?>
<!-- Generator: Adobe Illustrator 15.0.0, SVG Export Plug-In . SVG Version: 6.00 Build 0)  -->
<!DOCTYPE svg PUBLIC "-//W3C//DTD SVG 1.1//EN" "http://www.w3.org/Graphics/SVG/1.1/DTD/svg11.dtd">
<svg version="1.1" id="Layer_1" xmlns="http://www.w3.org/2000/svg" xmlns:xlink="http://www.w3.org/1999/xlink" x="0px" y="0px"
	 width="250px" height="250px" viewBox="0 0 250 250" enable-background="new 0 0 250 250" xml:space="preserve">
<g>
	<g>
		<g>
			<path fill="#FAC3C6" d="M186.6,213.729c-16.881-3.855-31.441-18.467-37.698-8.177C145.916,229.451,167.583,215.302,186.6,213.729
				"/>
			<g>
				<path d="M187.793,212.415c-10.322-2.555-19.358-10.032-29.825-11.665c-3.214-0.502-6.329-0.191-9.04,1.71
					c-3.414,2.395-3.072,6.674-2.561,10.387c0.909,6.603,7,8.21,12.76,7.83c9.355-0.619,18.202-4.612,27.551-5.506
					c2.998-0.287,2.887-3.176-0.156-2.885c-6.534,0.625-12.835,2.311-19.187,3.889c-4.63,1.15-12.594,4.019-15.366-1.504
					c-1.025-2.043-1.645-7.37-0.299-9.352c2.441-3.595,7.319-1.171,10.387,0.131c7.802,3.312,15.052,7.537,23.35,9.592
					C187.389,215.532,190.975,213.203,187.793,212.415L187.793,212.415z"/>
			</g>
		</g>
		<g>
			<path fill="#D1D3D4" d="M10.032,185.652c-5.766-3.95,4.502-12.931,11.481-12.547c33.974,1.87,126.283,37.481,126.283,37.481
				S32.763,201.222,10.032,185.652z"/>
			<g>
				<path d="M11.168,184.316c-3.526-2.938,6.514-8.224,8.28-8.771c2.646-0.82,5.871-0.114,8.562,0.233
					c6.349,0.818,12.622,2.215,18.839,3.714c14.995,3.614,29.758,8.211,44.412,13.003c18.993,6.21,37.869,12.875,56.515,20.063
					c-0.175-1.354-0.35-2.708-0.523-4.062c-19.625-1.603-39.221-3.806-58.736-6.41c-15.451-2.062-30.897-4.418-46.146-7.68
					c-10.478-2.241-22.671-4.409-31.75-10.474c-2.751-1.838-3.429,1.936-1.179,3.438c8.938,5.971,20.664,8.256,30.968,10.559
					c15.166,3.391,30.556,5.773,45.943,7.896c20.583,2.84,41.274,5.16,61.985,6.851c3.043,0.249,1.121-3.428-0.523-4.062
					c-22.341-8.612-44.996-16.52-67.837-23.694c-15.479-4.861-31.151-9.462-47.128-12.386c-5.955-1.09-12.358-2.516-18.155-0.223
					c-5.772,2.283-12.037,9.48-5.799,14.676C11.271,188.967,13.551,186.3,11.168,184.316z"/>
			</g>
		</g>
	</g>
	<g>
		<g>
			<path fill="#D1D3D4" d="M135.5,32C84.414,32,43,66.698,43,109.5c0,42.802,41.414,77.5,92.5,77.5c51.086,0,49-49,92.5-77.5
				C263.803,86.043,186.586,32,135.5,32z M190.71,116.634c-5.647,2.074-11.481,0.332-13.032-3.887
				c-1.548-4.217,1.774-9.321,7.42-11.395c5.647-2.074,11.481-0.332,13.031,3.886C199.678,109.458,196.355,114.561,190.71,116.634z"
				/>
		</g>
		<g>
			<path d="M135.5,29.5c-43.625,0.296-91.11,28.607-92.494,76.308c-0.538,18.513,4.467,35.475,16.193,50.017
				c14.354,17.801,36.156,28.412,58.383,32.223c20.609,3.533,41.335,1.261,56.651-13.975c13.456-13.384,21.692-31.211,34.354-45.34
				c3.52-3.928,7.369-7.54,11.435-10.895c3.835-3.166,8.306-5.558,11.923-8.968c4.118-3.883,5.241-8.712,5.241-14.141
				c0-14.494-10.44-25.21-21.085-33.878C194.194,43.01,164.036,29.711,135.5,29.5c-0.025,0-0.05,5,0,5
				c20.127,0.149,39.947,7.173,57.608,16.407c15.318,8.009,31.868,19.046,40.599,34.442c1.499,2.644,2.586,5.504,3.163,8.487
				c0.211,1.089,0.135,3.424,0.263-0.852c-0.025,0.854-0.177,1.688-0.342,2.521c-0.306,1.537-0.946,2.982-1.692,4.349
				c-1.487,2.723-3.876,4.857-6.359,6.646c-4.774,3.441-9.452,6.764-13.794,10.764c-14.58,13.434-23.468,31.204-35.858,46.406
				c-5.477,6.719-11.996,12.428-19.869,16.148c-9.738,4.602-20.736,5.071-31.305,4.425c-23.144-1.416-45.881-10.685-62.646-26.807
				c-15.38-14.79-25.013-36.599-21.056-58.007c3.926-21.244,18.709-38.774,36.66-49.976C97.149,39.294,116.433,34.629,135.5,34.5
				C135.549,34.5,135.526,29.5,135.5,29.5z"/>
			<path d="M190.71,114.134c-5.225,1.667-12.593,0.887-13.405-5.737c0.003,1.637,0.005,3.274,0.007,4.911
				c0.253-10.188,19.763-15.354,21.19-3.718c-0.002-1.637-0.005-3.274-0.007-4.911C198.38,109.377,194.76,112.445,190.71,114.134
				c-0.624,0.26,0.56,4.767,0,5c3.583-1.494,6.466-3.84,7.613-7.654c0.51-1.696,0.21-3.908,0.2-5.652
				c-0.043-7.343-7.515-8.861-13.426-6.975c-6.51,2.077-7.849,7.375-7.814,13.306c0.043,7.343,7.516,8.861,13.427,6.975
				C191.227,118.969,190.262,114.277,190.71,114.134z"/>
		</g>
	</g>
	<g>
		<path fill="#FAC3C6" d="M96.724,165.861c-2.745-7.478,2.595-16.327,11.926-19.752c9.334-3.429,19.127-0.137,21.875,7.34
			c2.746,7.481-2.594,16.326-11.924,19.755C109.266,176.632,99.473,173.341,96.724,165.861z"/>
		<g>
			<path d="M99.148,165.786c-4.928-15.855,21.921-28.65,28.952-12.262C134.635,168.757,106.161,182.135,99.148,165.786
				c-0.568-1.325-5.44-1.229-4.849,0.15c8.033,18.727,45.052,8.032,38.65-12.562c-2.755-8.859-15.339-10.942-23.051-8.979
				c-9.573,2.439-18.927,10.835-15.599,21.541C94.708,167.253,99.623,167.313,99.148,165.786z"/>
		</g>
	</g>
	<g>
		<path fill="#F9B6AC" d="M58.579,124.387c-3.642-9.921,1.757-21.044,12.06-24.825c10.306-3.786,21.615,1.2,25.26,11.12
			c3.644,9.926-1.756,21.042-12.059,24.828C73.535,139.296,62.226,134.311,58.579,124.387z"/>
		<g>
			<path d="M61.003,124.312c-2.794-8.567,0.543-17.275,7.975-22.235c9.363-6.25,20.543-0.974,24.497,8.681
				c3.384,8.265-0.96,17.555-7.974,22.237C76.137,139.247,64.957,133.968,61.003,124.312c-0.543-1.326-5.423-1.253-4.849,0.15
				c4.206,10.271,16.044,15.411,26.686,12.691c11.949-3.055,19.417-14.486,15.483-26.546C94.896,100.1,81.694,95.349,71.639,97.92
				c-11.947,3.055-19.417,14.482-15.484,26.542C56.585,125.782,61.496,125.821,61.003,124.312z"/>
		</g>
	</g>
	<g>
		<path fill="#FCD1C5" d="M92.443,87.104c-2.745-7.478,2.595-16.327,11.926-19.752c9.334-3.429,19.127-0.137,21.875,7.34
			c2.746,7.481-2.594,16.326-11.925,19.755C104.986,97.874,95.192,94.583,92.443,87.104z"/>
		<g>
			<path d="M94.868,87.028c-4.928-15.855,21.921-28.651,28.952-12.262C130.354,89.999,101.88,103.376,94.868,87.028
				c-0.568-1.325-5.44-1.228-4.849,0.15c8.033,18.726,45.051,8.032,38.65-12.562c-2.755-8.859-15.339-10.943-23.051-8.978
				c-9.573,2.438-18.927,10.834-15.599,21.541C90.428,88.495,95.342,88.556,94.868,87.028z"/>
		</g>
	</g>
</g>
</svg>
